<?xml version="1.0" encoding="utf-8"?>
<!-- Generated by IcoMoon.io -->
<!DOCTYPE svg PUBLIC "-//W3C//DTD SVG 1.1//EN" "http://www.w3.org/Graphics/SVG/1.1/DTD/svg11.dtd">
<svg version="1.1" xmlns="http://www.w3.org/2000/svg" xmlns:xlink="http://www.w3.org/1999/xlink" width="32" height="32" viewBox="0 0 32 32">
<path fill="#000000" d="M28.606 26.826l2.037-1.318-1.991-3.23-2.088 1.35-5.203-8.152h-8.14v-1.114h9.108v-3.794h-9.109v-3.412c1.003-0.631 1.671-1.747 1.671-3.020 0-1.971-1.597-3.57-3.57-3.57-1.971 0-3.57 1.599-3.57 3.57 0 1.273 0.668 2.388 1.673 3.020v12.114h9.855l6.133 9.609 0.011-0.008 0.005 0.008 1.216-0.787 1.965-1.255-0.003-0.011z"></path>
<path fill="#000000" d="M11.769 28.272c-3.997 0-7.249-3.252-7.249-7.249 0-2.682 1.469-5.025 3.641-6.279v-3.49c-3.971 1.468-6.803 5.288-6.803 9.768 0 5.751 4.661 10.412 10.41 10.412 4.391 0 8.145-2.719 9.676-6.566l-2.428-3.803c-0.023 3.979-3.264 7.207-7.247 7.207z"></path>
</svg>
