<?xml version="1.0" encoding="utf-8"?>
<!-- Generated by IcoMoon.io -->
<!DOCTYPE svg PUBLIC "-//W3C//DTD SVG 1.1//EN" "http://www.w3.org/Graphics/SVG/1.1/DTD/svg11.dtd">
<svg version="1.1" xmlns="http://www.w3.org/2000/svg" xmlns:xlink="http://www.w3.org/1999/xlink" width="32" height="32" viewBox="0 0 32 32">
<path fill="#000000" d="M24 10.688v-2.688h-16v2.688h16zM18.688 18.688v-2.688h-10.688v2.688h10.688zM8 12v2.688h16v-2.688h-16zM26.688 2.688q1.063 0 1.844 0.781t0.781 1.844v16q0 1.063-0.781 1.875t-1.844 0.813h-18.688l-5.313 5.313v-24q0-1.063 0.781-1.844t1.844-0.781h21.375z"></path>
</svg>
