<?xml version="1.0" encoding="utf-8"?>
<!-- Generated by IcoMoon.io -->
<!DOCTYPE svg PUBLIC "-//W3C//DTD SVG 1.1//EN" "http://www.w3.org/Graphics/SVG/1.1/DTD/svg11.dtd">
<svg version="1.1" xmlns="http://www.w3.org/2000/svg" xmlns:xlink="http://www.w3.org/1999/xlink" width="32" height="32" viewBox="0 0 32 32">
<path fill="#000000" d="M25.535 16.616v11.335q0 0.862-0.594 1.455t-1.455 0.594h-14.973q-0.862 0-1.455-0.594t-0.594-1.455v-11.335q0-0.862 0.594-1.455t1.455-0.594h10.072q0.402 0 0.708-0.306t0.306-0.708v-4.481q0-1.551-1.11-2.623t-2.642-0.977q-1.494 0.096-2.489 1.206t-0.977 2.604v1.589q-0.019 0.402-0.287 0.67t-0.67 0.287h-1.474q-0.421-0.019-0.689-0.287t-0.268-0.67v-1.742q0-3.715 3.159-5.859 1.953-1.34 4.117-1.13t3.619 1.245 2.259 2.642 0.804 3.408v4.155q0.019 0.881 1.015 1.015 0.536 0.077 1.053 0.651t0.517 1.359z"></path>
</svg>
