<?xml version="1.0" encoding="utf-8"?>
<!-- Generated by IcoMoon.io -->
<!DOCTYPE svg PUBLIC "-//W3C//DTD SVG 1.1//EN" "http://www.w3.org/Graphics/SVG/1.1/DTD/svg11.dtd">
<svg version="1.1" xmlns="http://www.w3.org/2000/svg" xmlns:xlink="http://www.w3.org/1999/xlink" width="32" height="32" viewBox="0 0 32 32">
<path fill="#000000" d="M17.634 27.2h-12.866v-22.4h12.864v4.8h3.168v-4.8c0-1.76-1.438-3.2-3.2-3.2h-12.8c-1.76 0-3.2 1.44-3.2 3.2v22.4c0 1.76 1.44 3.2 3.2 3.2h12.8c1.762 0 3.2-1.44 3.2-3.2v-3.2h-3.166v3.2zM30.4 16.8l-6.366-6.24v3.84h-14.4v4.8h14.4v3.84l6.366-6.24z"></path>
</svg>
