<?xml version="1.0" encoding="utf-8"?>
<!-- Generated by IcoMoon.io -->
<!DOCTYPE svg PUBLIC "-//W3C//DTD SVG 1.1//EN" "http://www.w3.org/Graphics/SVG/1.1/DTD/svg11.dtd">
<svg version="1.1" xmlns="http://www.w3.org/2000/svg" xmlns:xlink="http://www.w3.org/1999/xlink" width="32" height="32" viewBox="0 0 32 32">
<path fill="#000000" d="M20 25.313v-15.813l-8-2.813v15.813zM27.313 4q0.688 0 0.688 0.688v20.125q0 0.5-0.5 0.625l-7.5 2.563-8-2.813-7.125 2.75-0.188 0.063q-0.688 0-0.688-0.688v-20.125q0-0.5 0.5-0.625l7.5-2.563 8 2.813 7.125-2.75z"></path>
</svg>
