<?xml version="1.0" encoding="utf-8"?>
<!-- Generated by IcoMoon.io -->
<!DOCTYPE svg PUBLIC "-//W3C//DTD SVG 1.1//EN" "http://www.w3.org/Graphics/SVG/1.1/DTD/svg11.dtd">
<svg version="1.1" xmlns="http://www.w3.org/2000/svg" xmlns:xlink="http://www.w3.org/1999/xlink" width="32" height="32" viewBox="0 0 32 32">
<path fill="#000000" d="M1.75 6.5h28.5v3.191h-28.5v-3.191zM1.75 17.559v-3.117h28.5v3.117h-28.5zM1.75 25.5v-3.191h28.5v3.191h-28.5z"></path>
</svg>
