<?xml version="1.0" encoding="utf-8"?>
<!-- Generated by IcoMoon.io -->
<!DOCTYPE svg PUBLIC "-//W3C//DTD SVG 1.1//EN" "http://www.w3.org/Graphics/SVG/1.1/DTD/svg11.dtd">
<svg version="1.1" xmlns="http://www.w3.org/2000/svg" xmlns:xlink="http://www.w3.org/1999/xlink" width="32" height="32" viewBox="0 0 32 32">
<path fill="#000000" d="M28.102 6.952h-24.183c-1.021 0-1.853-0.832-1.853-1.853v-3.135c0-1.021 0.832-1.852 1.853-1.852h24.183c1.021 0 1.853 0.831 1.853 1.852v3.135c0 1.021-0.832 1.853-1.853 1.853zM3.919 1.899l-0.067 3.201h24.316v-3.135l-24.25-0.066z"></path>
<path fill="#000000" d="M5.82 0.796h2.248v5.553h-2.248v-5.553z"></path>
<path fill="#000000" d="M9.125 1.854h2.248v4.495h-2.248v-4.495z"></path>
<path fill="#000000" d="M5.423 5.159v25.055c0 1.021 0.773 1.915 1.793 1.915h17.586c1.021 0 1.905-0.894 1.905-1.915v-25.055h-21.285zM22.742 26.973h-1.474c-1.070 0-1.397-0.235-1.796-0.978l-1.293-2.264-2.235 3.242h-2.722v-1.719h1.833l2.176-3.174-2.5-4.361c-0.272-0.49-0.508-0.662-1.251-0.662h-1.182v3.173h1.454v1.719h-5.421v-1.719h1.586v-9.255h-1.586v-1.851h5.729c0.943 0 1.709 0.057 2.434 0.275 1.433 0.472 2.362 1.635 2.362 3.449 0 1.796-0.873 3.066-2.46 3.573v0.036c0 0 0.41 0.204 0.664 0.675l1.648 2.804 1.535-2.219h2.234v1.719h-1.327l-1.489 2.14 1.825 3.143c0.181 0.327 0.435 0.402 0.871 0.402h0.385v1.851z"></path>
<path fill="#000000" d="M15.494 11.241c-0.363-0.163-0.853-0.265-1.451-0.265h-1.744v4.231h2.144c1.252 0 2.068-0.776 2.068-2.155 0-0.835-0.309-1.52-1.016-1.81z"></path>
</svg>
