<?xml version="1.0" encoding="utf-8"?>
<!-- Generated by IcoMoon.io -->
<!DOCTYPE svg PUBLIC "-//W3C//DTD SVG 1.1//EN" "http://www.w3.org/Graphics/SVG/1.1/DTD/svg11.dtd">
<svg version="1.1" xmlns="http://www.w3.org/2000/svg" xmlns:xlink="http://www.w3.org/1999/xlink" width="32" height="32" viewBox="0 0 32 32">
<path fill="#000000" d="M31.219 28.771l-14.253-25.010c-0.197-0.346-0.566-0.558-0.966-0.558s-0.768 0.213-0.966 0.558l-14.251 25.010c-0.194 0.339-0.19 0.754 0.008 1.090s0.563 0.542 0.957 0.542h28.504c0.39 0 0.757-0.206 0.957-0.542 0.198-0.336 0.202-0.75 0.011-1.090zM17.76 27.203h-3.52v-3.2h3.52v3.2zM17.76 21.603h-3.52v-9.6h3.52v9.6z"></path>
</svg>
