<?xml version="1.0" encoding="UTF-8" standalone="no"?>
<svg width="256px" height="257px" viewBox="0 0 256 257" version="1.1" xmlns="http://www.w3.org/2000/svg" xmlns:xlink="http://www.w3.org/1999/xlink" xmlns:sketch="http://www.bohemiancoding.com/sketch/ns">
    <!-- Generator: Sketch 3.3.3 (12081) - http://www.bohemiancoding.com/sketch -->
    <title>unknown-disc-black</title>
    <desc>Created with Sketch.</desc>
    <defs>
        <circle id="path-1" cx="127.5" cy="128.042188" r="114.776563"></circle>
    </defs>
    <g id="Page-1" stroke="none" stroke-width="1" fill="none" fill-rule="evenodd" sketch:type="MSPage">
        <g id="unknown-disc-black" sketch:type="MSArtboardGroup" transform="translate(0.000000, 0.894579)">
            <mask id="mask-2" sketch:name="Mask" fill="white">
                <use xlink:href="#path-1"></use>
            </mask>
            <use id="Mask" stroke="#000000" stroke-width="12" fill="#FFFFFF" sketch:type="MSShapeGroup" xlink:href="#path-1"></use>
            <text id="?" sketch:type="MSTextLayer" mask="url(#mask-2)" font-family="Avenir Next" font-size="164" font-weight="bold" sketch:alignment="middle" fill="#000000">
                <tspan x="83.228" y="196">?</tspan>
            </text>
        </g>
    </g>
</svg>