<?xml version="1.0" encoding="UTF-8" standalone="no"?>
<svg width="256px" height="257px" viewBox="0 0 256 257" version="1.1" xmlns="http://www.w3.org/2000/svg" xmlns:xlink="http://www.w3.org/1999/xlink" xmlns:sketch="http://www.bohemiancoding.com/sketch/ns">
    <!-- Generator: Sketch 3.3.3 (12081) - http://www.bohemiancoding.com/sketch -->
    <title>unknown-disc</title>
    <desc>Created with Sketch.</desc>
    <defs>
        <radialGradient cx="50%" cy="83.0818966%" fx="50%" fy="83.0818966%" r="100%" id="radialGradient-1">
            <stop stop-color="#FFFFFF" offset="0%"></stop>
            <stop stop-color="#C8C8C8" offset="100%"></stop>
        </radialGradient>
        <circle id="path-2" cx="127.5" cy="128.042188" r="114.776563"></circle>
    </defs>
    <g id="Page-1" stroke="none" stroke-width="1" fill="none" fill-rule="evenodd" sketch:type="MSPage">
        <g id="unknown-disc" sketch:type="MSArtboardGroup" transform="translate(0.000000, 0.894579)">
            <mask id="mask-3" sketch:name="Mask" fill="white">
                <use xlink:href="#path-2"></use>
            </mask>
            <use id="Mask" fill="url(#radialGradient-1)" sketch:type="MSShapeGroup" xlink:href="#path-2"></use>
            <text id="?" opacity="0.466126399" sketch:type="MSTextLayer" mask="url(#mask-3)" font-family="Avenir Next" font-size="164" font-weight="bold" sketch:alignment="middle" fill="#838383">
                <tspan x="83.228" y="196">?</tspan>
            </text>
        </g>
    </g>
</svg>