<?xml version="1.0" encoding="utf-8"?>
<!-- Generated by IcoMoon.io -->
<!DOCTYPE svg PUBLIC "-//W3C//DTD SVG 1.1//EN" "http://www.w3.org/Graphics/SVG/1.1/DTD/svg11.dtd">
<svg version="1.1" xmlns="http://www.w3.org/2000/svg" xmlns:xlink="http://www.w3.org/1999/xlink" width="32" height="32" viewBox="0 0 32 32">
<path fill="#ffffff" d="M23.76 20.010l-3.958-4.010 3.958-4.010-1.563-1.563-3.958 4.010-4.010-4.010-1.563 1.563 4.010 4.010-4.010 4.010 1.563 1.563 4.010-4.010 3.958 4.010zM27.094 6q0.885 0 1.563 0.677t0.677 1.563v15.521q0 0.885-0.677 1.563t-1.563 0.677h-16.667q-1.042 0-1.771-0.99l-5.99-9.010 5.99-9.010q0.729-0.99 1.771-0.99h16.667z"></path>
</svg>
