<?xml version="1.0" encoding="utf-8"?>
<!-- Generated by IcoMoon.io -->
<!DOCTYPE svg PUBLIC "-//W3C//DTD SVG 1.1//EN" "http://www.w3.org/Graphics/SVG/1.1/DTD/svg11.dtd">
<svg version="1.1" xmlns="http://www.w3.org/2000/svg" xmlns:xlink="http://www.w3.org/1999/xlink" width="32" height="32" viewBox="0 0 32 32">
<path fill="#ffffff" d="M24 10.688v-2.688h-16v2.688h16zM24 14.688v-2.688h-16v2.688h16zM24 18.688v-2.688h-16v2.688h16zM29.313 5.313v24l-5.313-5.313h-18.688q-1.063 0-1.844-0.813t-0.781-1.875v-16q0-1.063 0.781-1.844t1.844-0.781h21.375q1.063 0 1.844 0.781t0.781 1.844z"></path>
</svg>
