<?xml version="1.0" encoding="utf-8"?>
<!-- Generated by IcoMoon.io -->
<!DOCTYPE svg PUBLIC "-//W3C//DTD SVG 1.1//EN" "http://www.w3.org/Graphics/SVG/1.1/DTD/svg11.dtd">
<svg version="1.1" xmlns="http://www.w3.org/2000/svg" xmlns:xlink="http://www.w3.org/1999/xlink" width="25" height="32" viewBox="0 0 25 32">
<path fill="#ffffff" d="M25.054 5.268q0.304 0.732-0.25 1.25l-8.804 8.804v13.25q0 0.75-0.696 1.054-0.232 0.089-0.446 0.089-0.482 0-0.804-0.339l-4.571-4.571q-0.339-0.339-0.339-0.804v-8.679l-8.804-8.804q-0.554-0.518-0.25-1.25 0.304-0.696 1.054-0.696h22.857q0.75 0 1.054 0.696z"></path>
</svg>
