<?xml version="1.0" encoding="utf-8"?>
<!-- Generated by IcoMoon.io -->
<!DOCTYPE svg PUBLIC "-//W3C//DTD SVG 1.1//EN" "http://www.w3.org/Graphics/SVG/1.1/DTD/svg11.dtd">
<svg version="1.1" xmlns="http://www.w3.org/2000/svg" xmlns:xlink="http://www.w3.org/1999/xlink" width="25" height="32" viewBox="0 0 25 32">
<path fill="#ffffff" d="M6.857 23.429v1.143c0 0.155-0.057 0.289-0.17 0.402s-0.247 0.17-0.402 0.17h-1.143c-0.155 0-0.289-0.057-0.402-0.17s-0.17-0.247-0.17-0.402v-1.143c0-0.155 0.057-0.289 0.17-0.402s0.247-0.17 0.402-0.17h1.143c0.155 0 0.289 0.057 0.402 0.17s0.17 0.247 0.17 0.402v0zM6.857 18.857v1.143c0 0.155-0.057 0.289-0.17 0.402s-0.247 0.17-0.402 0.17h-1.143c-0.155 0-0.289-0.057-0.402-0.17s-0.17-0.247-0.17-0.402v-1.143c0-0.155 0.057-0.289 0.17-0.402s0.247-0.17 0.402-0.17h1.143c0.155 0 0.289 0.057 0.402 0.17s0.17 0.247 0.17 0.402v0zM11.429 18.857v1.143c0 0.155-0.057 0.289-0.17 0.402s-0.247 0.17-0.402 0.17h-1.143c-0.155 0-0.289-0.057-0.402-0.17s-0.17-0.247-0.17-0.402v-1.143c0-0.155 0.057-0.289 0.17-0.402s0.247-0.17 0.402-0.17h1.143c0.155 0 0.289 0.057 0.402 0.17s0.17 0.247 0.17 0.402v0zM6.857 14.286v1.143c0 0.155-0.057 0.289-0.17 0.402s-0.247 0.17-0.402 0.17h-1.143c-0.155 0-0.289-0.057-0.402-0.17s-0.17-0.247-0.17-0.402v-1.143c0-0.155 0.057-0.289 0.17-0.402s0.247-0.17 0.402-0.17h1.143c0.155 0 0.289 0.057 0.402 0.17s0.17 0.247 0.17 0.402v0zM20.571 23.429v1.143c0 0.155-0.057 0.289-0.17 0.402s-0.247 0.17-0.402 0.17h-1.143c-0.155 0-0.289-0.057-0.402-0.17s-0.17-0.247-0.17-0.402v-1.143c0-0.155 0.057-0.289 0.17-0.402s0.247-0.17 0.402-0.17h1.143c0.155 0 0.289 0.057 0.402 0.17s0.17 0.247 0.17 0.402v0zM16 18.857v1.143c0 0.155-0.057 0.289-0.17 0.402s-0.247 0.17-0.402 0.17h-1.143c-0.155 0-0.289-0.057-0.402-0.17s-0.17-0.247-0.17-0.402v-1.143c0-0.155 0.057-0.289 0.17-0.402s0.247-0.17 0.402-0.17h1.143c0.155 0 0.289 0.057 0.402 0.17s0.17 0.247 0.17 0.402v0zM11.429 14.286v1.143c0 0.155-0.057 0.289-0.17 0.402s-0.247 0.17-0.402 0.17h-1.143c-0.155 0-0.289-0.057-0.402-0.17s-0.17-0.247-0.17-0.402v-1.143c0-0.155 0.057-0.289 0.17-0.402s0.247-0.17 0.402-0.17h1.143c0.155 0 0.289 0.057 0.402 0.17s0.17 0.247 0.17 0.402v0zM20.571 18.857v1.143c0 0.155-0.057 0.289-0.17 0.402s-0.247 0.17-0.402 0.17h-1.143c-0.155 0-0.289-0.057-0.402-0.17s-0.17-0.247-0.17-0.402v-1.143c0-0.155 0.057-0.289 0.17-0.402s0.247-0.17 0.402-0.17h1.143c0.155 0 0.289 0.057 0.402 0.17s0.17 0.247 0.17 0.402v0zM16 14.286v1.143c0 0.155-0.057 0.289-0.17 0.402s-0.247 0.17-0.402 0.17h-1.143c-0.155 0-0.289-0.057-0.402-0.17s-0.17-0.247-0.17-0.402v-1.143c0-0.155 0.057-0.289 0.17-0.402s0.247-0.17 0.402-0.17h1.143c0.155 0 0.289 0.057 0.402 0.17s0.17 0.247 0.17 0.402v0zM20.571 14.286v1.143c0 0.155-0.057 0.289-0.17 0.402s-0.247 0.17-0.402 0.17h-1.143c-0.155 0-0.289-0.057-0.402-0.17s-0.17-0.247-0.17-0.402v-1.143c0-0.155 0.057-0.289 0.17-0.402s0.247-0.17 0.402-0.17h1.143c0.155 0 0.289 0.057 0.402 0.17s0.17 0.247 0.17 0.402v0zM16 29.714h6.857v-20.571h-4.571v0.571c0 0.476-0.167 0.881-0.5 1.214s-0.738 0.5-1.214 0.5h-8c-0.476 0-0.881-0.167-1.214-0.5s-0.5-0.738-0.5-1.214v-0.571h-4.571v20.571h6.857v-4c0-0.155 0.057-0.289 0.17-0.402s0.247-0.17 0.402-0.17h5.714c0.155 0 0.289 0.057 0.402 0.17s0.17 0.247 0.17 0.402v4zM11.429 4.571h-1.929c-0.197 0-0.357 0.16-0.357 0.357v1.571c0 0.197 0.16 0.357 0.357 0.357h1.929v1.929c0 0.197 0.16 0.357 0.357 0.357h1.571c0.197 0 0.357-0.16 0.357-0.357v-1.929h1.929c0.197 0 0.357-0.16 0.357-0.357v-1.571c0-0.197-0.16-0.357-0.357-0.357h-1.929v-1.929c0-0.197-0.16-0.357-0.357-0.357h-1.571c-0.197 0-0.357 0.16-0.357 0.357v1.929zM25.143 8v22.857c0 0.31-0.113 0.577-0.339 0.804s-0.494 0.339-0.804 0.339h-22.857c-0.31 0-0.577-0.113-0.804-0.339s-0.339-0.494-0.339-0.804v-22.857c0-0.31 0.113-0.577 0.339-0.804s0.494-0.339 0.804-0.339h5.714v-5.143c0-0.476 0.167-0.881 0.5-1.214s0.738-0.5 1.214-0.5h8c0.476 0 0.881 0.167 1.214 0.5s0.5 0.738 0.5 1.214v5.143h5.714c0.31 0 0.577 0.113 0.804 0.339s0.339 0.494 0.339 0.804z"></path>
</svg>
