<?xml version="1.0" encoding="utf-8"?>
<!-- Generated by IcoMoon.io -->
<!DOCTYPE svg PUBLIC "-//W3C//DTD SVG 1.1//EN" "http://www.w3.org/Graphics/SVG/1.1/DTD/svg11.dtd">
<svg version="1.1" xmlns="http://www.w3.org/2000/svg" xmlns:xlink="http://www.w3.org/1999/xlink" width="32" height="32" viewBox="0 0 32 32">
<path fill="#ffffff" d="M23.5 7.813l5.813 8.188-5.813 8.188q-0.813 1.125-2.188 1.125h-14.625q-1.063 0-1.875-0.781t-0.813-1.844v-13.375q0-1.063 0.813-1.844t1.875-0.781h14.625q1.375 0 2.188 1.125z"></path>
</svg>
