<?xml version="1.0" encoding="utf-8"?>
<!-- Generated by IcoMoon.io -->
<!DOCTYPE svg PUBLIC "-//W3C//DTD SVG 1.1//EN" "http://www.w3.org/Graphics/SVG/1.1/DTD/svg11.dtd">
<svg version="1.1" xmlns="http://www.w3.org/2000/svg" xmlns:xlink="http://www.w3.org/1999/xlink" width="32" height="32" viewBox="0 0 32 32">
<path fill="#ffffff" d="M4 19h8v10h-8v-10z"></path>
<path fill="#ffffff" d="M18 14v13h-5v-13h5zM20 12h-9v17h9v-17z"></path>
<path fill="#ffffff" d="M25 6v21h-5v-21h5zM27 4h-9v25h9v-25z"></path>
</svg>
