<?xml version="1.0" encoding="utf-8"?>
<!-- Generated by IcoMoon.io -->
<!DOCTYPE svg PUBLIC "-//W3C//DTD SVG 1.1//EN" "http://www.w3.org/Graphics/SVG/1.1/DTD/svg11.dtd">
<svg version="1.1" xmlns="http://www.w3.org/2000/svg" xmlns:xlink="http://www.w3.org/1999/xlink" width="32" height="32" viewBox="0 0 32 32">
<path fill="#ffffff" d="M17.313 17.313v-8h-2.625v8h2.625zM17.313 22.688v-2.688h-2.625v2.688h2.625zM30.688 16l-3.25 3.688 0.438 4.938-4.813 1.063-2.5 4.25-4.563-1.938-4.563 1.938-2.5-4.188-4.813-1.125 0.438-4.938-3.25-3.688 3.25-3.75-0.438-4.875 4.813-1.063 2.5-4.25 4.563 1.938 4.563-1.938 2.5 4.25 4.813 1.063-0.438 4.938z"></path>
</svg>
